{
  "project_info": {
    "project_number": "1059455022980",
    "firebase_url": "https://huestyle-f28b8.firebaseio.com",
    "project_id": "huestyle-f28b8",
    "storage_bucket": "huestyle-f28b8.appspot.com"
  },
  "client": [
    {
      "client_info": {
        "mobilesdk_app_id": "1:1059455022980:android:bae7c4c19e573bdcadcfd1",
        "android_client_info": {
          "package_name": "com.mobileclass.huestyles"
        }
      },
      "oauth_client": [
        {
          "client_id": "1059455022980-92ah7coam5kj6mj70qjsjek77s5o8buj.apps.googleusercontent.com",
          "client_type": 1,
          "android_info": {
            "package_name": "com.mobileclass.huestyles",
            "certificate_hash": "2afdb7ab444932269c9359a65d5150a2908b554e"
          }
        },
        {
          "client_id": "1059455022980-6dsmljc1bo0k0birk52qlermq7p1ncv8.apps.googleusercontent.com",
          "client_type": 1,
          "android_info": {
            "package_name": "com.mobileclass.huestyles",
            "certificate_hash": "0be964b31e5149d89e0b5ae61b58f3d3a3779205"
          }
        },
        {
          "client_id": "1059455022980-vulneu2f29v45p1dcecajfh1b2qiqomb.apps.googleusercontent.com",
          "client_type": 3
        }
      ],
      "api_key": [
        {
          "current_key": "AIzaSyAm7kJ-uohmr3r59bou23UW8uMX9yarQ84"
        }
      ],
      "services": {
        "appinvite_service": {
          "other_platform_oauth_client": [
            {
              "client_id": "1059455022980-vulneu2f29v45p1dcecajfh1b2qiqomb.apps.googleusercontent.com",
              "client_type": 3
            },
            {
              "client_id": "1059455022980-g4psfh51l4m3ctrr3aii0ejk61hm1op1.apps.googleusercontent.com",
              "client_type": 2,
              "ios_info": {
                "bundle_id": "huestyle.huestyle"
              }
            }
          ]
        }
      }
    }
  ],
  "configuration_version": "1"
}